C:\Users\venka\eclipse-workspace\Amazon\src\main\java\beam\Add_Another_Product.java
C:\Users\venka\eclipse-workspace\Amazon\src\main\java\beam\Remove_Product.java
C:\Users\venka\eclipse-workspace\Amazon\src\main\java\beam\Add_Product.java
C:\Users\venka\eclipse-workspace\Amazon\src\main\java\beam\Search_and_verify.java
C:\Users\venka\eclipse-workspace\Amazon\src\main\java\beam\StartEngine.java
